{
  "key": "my-app",
  "name": "My app",
  "description": "My very first app",
  "baseUrl": "{{localBaseUrl}}",
  "authentication": {
    "type": "jwt"
  },
  "lifecycle": {
    "installed": "/installed"
  },
  "scopes": ["READ", "WRITE"],
  "apiMigrations": {
    "signed-install": true
  },
  "modules": {
    "dynamicContentMacros": [
      {
        "key": "confluence-speak",
        "height": "1px",
        "width": "1px",
        "name": {
          "value": "Testing app"
        },
        "url": "/audio",
        "description": {
          "value": "Testing recorder app"
        },
        "outputType": "inline",
        "bodyType": "none"
      }
    ]
  }
}
